{
    "models": [
        "Com1Org1.sbml",
        "Com1Org2.sbml",
        "Com1Org3.sbml"
    ],
    "results": [
        {
            "activated": [
                "R_A2_B2.Com1Org3",
                "R_A2_B2rev.Com1Org3",
                "R_A_S.Com1Org2",
                "R_A_Srev.Com1Org2",
                "R_B_JD.Com1Org1",
                "R_C2_B2.Com1Org3",
                "R_C2_B2rev.Com1Org3",
                "R_C_C2.Com1Org3",
                "R_C_C2rev.Com1Org3",
                "R_C_PY.Com1Org2",
                "R_D_X.Com1Org1",
                "R_D_Xrev.Com1Org1",
                "R_E_V.Com1Org3",
                "R_F2_C.Com1Org1",
                "R_F2_Crev.Com1Org1",
                "R_F_M.Com1Org2",
                "R_F_Mrev.Com1Org2",
                "R_G_H.Com1Org1",
                "R_G_Hrev.Com1Org1",
                "R_H_C.Com1Org1",
                "R_I_H.Com1Org1",
                "R_I_Hrev.Com1Org1",
                "R_M_O.Com1Org2",
                "R_M_Q.Com1Org2",
                "R_M_Qrev.Com1Org2",
                "R_O_P.Com1Org2",
                "R_O_Prev.Com1Org2",
                "R_Q_A.Com1Org2",
                "R_Q_Arev.Com1Org2",
                "R_V_B.Com1Org3",
                "R_V_Brev.Com1Org3",
                "R_W_A2.Com1Org3",
                "R_W_A2rev.Com1Org3",
                "R_W_B.Com1Org3",
                "R_X1_F2.Com1Org1",
                "R_X_G.Com1Org1",
                "R_X_Grev.Com1Org1",
                "R_Y_W.Com1Org3"
            ],
            "competition": [
                0.6666666666666666,
                {
                    "competition": 0.6666666666666666,
                    "number of polyopsonist metabolites": 1
                }
            ],
            "consumed_seeds": [
                "M_E_c",
                "M_F_c",
                "M_X1_c"
            ],
            "cooperation": [
                9.0,
                {
                    "coop bonus consumers": 4.5,
                    "coop bonus producers": 4.5,
                    "cooperation": 9.0,
                    "number of exchanged metabolites": 4
                }
            ],
            "delta": [
                12,
                {
                    "added value community": 12,
                    "sum community scope": 23,
                    "sum individual scope": 11
                }
            ],
            "exchange": {
                "M_A_c": {
                    "consumers": [
                        "Com1Org3"
                    ],
                    "producers": [
                        "Com1Org2"
                    ]
                },
                "M_B_c": {
                    "consumers": [
                        "Com1Org1"
                    ],
                    "producers": [
                        "Com1Org3"
                    ]
                },
                "M_C_c": {
                    "consumers": [
                        "Com1Org2",
                        "Com1Org3"
                    ],
                    "producers": [
                        "Com1Org1",
                        "Com1Org3"
                    ]
                },
                "M_Y_c": {
                    "consumers": [
                        "Com1Org3"
                    ],
                    "producers": [
                        "Com1Org2"
                    ]
                }
            },
            "monopsonist": {
                "M_A_c": 1,
                "M_B_c": 1,
                "M_Y_c": 1
            },
            "polyopsonist": {
                "M_C_c": 2
            },
            "produced_seeds": [
                "M_F_c"
            ],
            "rho": [
                21,
                {
                    "added activated community": 21,
                    "sum community activated": 38,
                    "sum individual activated": 17
                }
            ],
            "scope": [
                "M_A2_c.Com1Org3",
                "M_A_c.Com1Org2",
                "M_B2_c.Com1Org3",
                "M_B_c.Com1Org3",
                "M_C2_c.Com1Org3",
                "M_C_c.Com1Org1",
                "M_C_c.Com1Org3",
                "M_D_c.Com1Org1",
                "M_F2_c.Com1Org1",
                "M_F_c.Com1Org2",
                "M_G_c.Com1Org1",
                "M_H_c.Com1Org1",
                "M_I_c.Com1Org1",
                "M_J_c.Com1Org1",
                "M_M_c.Com1Org2",
                "M_O_c.Com1Org2",
                "M_P_c.Com1Org2",
                "M_Q_c.Com1Org2",
                "M_S_c.Com1Org2",
                "M_V_c.Com1Org3",
                "M_W_c.Com1Org3",
                "M_X_c.Com1Org1",
                "M_Y_c.Com1Org2"
            ],
            "seeds": [
                "M_E_c",
                "M_F_c",
                "M_X1_c"
            ]
        }
    ],
    "sbml_dir": "/Users/sherman/work/CCMC/CoCoMiCo/src/cocomico/example/sbml",
    "taxa": [
        "Com1Org1",
        "Com1Org2",
        "Com1Org3"
    ]
}
