{
    "models": [
        "Com1Org1.sbml",
        "Com2Org4.sbml"
    ],
    "results": [
        {
            "activated": [
                "R_B3_K.Com2Org4",
                "R_B3_Krev.Com2Org4",
                "R_D_X.Com1Org1",
                "R_D_Xrev.Com1Org1",
                "R_F2_C.Com1Org1",
                "R_F2_Crev.Com1Org1",
                "R_G_H.Com1Org1",
                "R_G_Hrev.Com1Org1",
                "R_H_C.Com1Org1",
                "R_I_H.Com1Org1",
                "R_I_Hrev.Com1Org1",
                "R_K_H.Com1Org1",
                "R_X1_F2.Com1Org1",
                "R_X1_ZB3.Com2Org4",
                "R_X_G.Com1Org1",
                "R_X_Grev.Com1Org1"
            ],
            "competition": [
                1.0,
                {
                    "competition": 1.0,
                    "number of polyopsonist metabolites": 1
                }
            ],
            "consumed_seeds": [
                "M_X1_c"
            ],
            "cooperation": [
                2.0,
                {
                    "coop bonus consumers": 1.0,
                    "coop bonus producers": 1.0,
                    "cooperation": 2.0,
                    "number of exchanged metabolites": 1
                }
            ],
            "delta": [
                5,
                {
                    "added value community": 5,
                    "sum community scope": 10,
                    "sum individual scope": 5
                }
            ],
            "exchange": {
                "M_K_c": {
                    "consumers": [
                        "Com1Org1"
                    ],
                    "producers": [
                        "Com2Org4"
                    ]
                }
            },
            "monopsonist": {
                "M_K_c": 1
            },
            "polyopsonist": {
                "M_X1_c": 2
            },
            "produced_seeds": [],
            "rho": [
                10,
                {
                    "added activated community": 10,
                    "sum community activated": 16,
                    "sum individual activated": 6
                }
            ],
            "scope": [
                "M_B3_c.Com2Org4",
                "M_C_c.Com1Org1",
                "M_D_c.Com1Org1",
                "M_F2_c.Com1Org1",
                "M_G_c.Com1Org1",
                "M_H_c.Com1Org1",
                "M_I_c.Com1Org1",
                "M_K_c.Com2Org4",
                "M_X_c.Com1Org1",
                "M_Z_c.Com2Org4"
            ],
            "seeds": [
                "M_E_c",
                "M_F_c",
                "M_X1_c"
            ]
        }
    ],
    "sbml_dir": "/Users/sherman/work/CCMC/CoCoMiCo/src/cocomico/example/sbml",
    "taxa": [
        "Com1Org1",
        "Com2Org4"
    ]
}
